{
  "project_info": {
    "project_number": "419758250245",
    "project_id": "authenticatortest-83541",
    "storage_bucket": "authenticatortest-83541.appspot.com"
  },
  "client": [
    {
      "client_info": {
        "mobilesdk_app_id": "1:419758250245:android:afec451f7814de735fbf6c",
        "android_client_info": {
          "package_name": "com.techmobi"
        }
      },
      "oauth_client": [],
      "api_key": [
        {
          "current_key": "AIzaSyCE2j7bR8yaELSn7-uRJ9KCvVgV-3xkvaQ"
        }
      ],
      "services": {
        "appinvite_service": {
          "other_platform_oauth_client": []
        }
      }
    }
  ],
  "configuration_version": "1"
}